Generic normalization procedure — norm_generic • tidynorm
…
  norm_generic(
    F1:F3,
    .by = speaker,
    .norm_fun = median_norm_fun,
    .by_formant = TRUE,
    .drop_orig = TRUE,
    .names = "{.col}_mad"
  )
#> Normalization info
#> • normalized `F1`, `F2`, and `F3`
#> • normalized values in `F1_mad`, `F2_mad`, and `F3_mad`
#> • grouped by `speaker`
#> • formant intrinsic
#> 
#> # A tibble: 10,697 × 9
#>      .id speaker vowel plt_vclass ipa_vclass word      F1_mad  F2_mad F3_mad
#>    <int> <chr>   <chr> <chr>      <chr>      <chr>      <dbl>   <dbl>  <dbl>
#>  1     1 s01     EY    eyF        ejF        OKAY      1.13    0.400  -0.521
#>  2     2 s01     AH    uh         ʌ          UM        0.643  -0.166   0.629
#>  3     3 s01     AY    ay         aj         I'M       2.09   -0.0211  0.165
#>  4     4 s01     IH    i          ɪ          LIVED    -0.454  -1.13    1.41 
#>  5     5 s01     IH    i          ɪ          IN       -0.0221  1.04    1.03 
#>  6     6 s01     AH    @          ə          COLUMBUS -0.0206 -0.104   0.715
#>  7     7 s01     AY    ay         aj         MY       -0.280   0.0479  0.968
#>  8     8 s01     IH    i          ɪ          ENTIRE   -0.649   1.07    1.03 
#>  9     9 s01     ER    *hr        ə˞         ENTIRE   -0.585  -0.709  -2.35 
#> 10    10 s01     AY    ay0        aj0        LIFE      0.987  -0.656  -2.34 
#> # ℹ 10,687 more rows
…
