Normalizing Formant Tracks • tidynorm
…
Tidynorm normalizes vowel formant tracks by

Converting them to Discrete Cosine Transform coefficients.

Directly normalizing the DCT coefficients.

Applying the inverse DCT.

Token IDs

In order to do this successfully, each vowel token needs to be uniquely identifiable with a token id, or a token id in combination with other columns. For example, in tidynorm::speaker_tracks the column speaker combined with the column id identifies each unique vowel formant track.

speaker_tracks
#> # A tibble: 19,500 × 9
#>    speaker    id vowel plt_vclass word      t    F1    F2    F3
#>    <chr>   <dbl> <chr> <chr>      <chr> <dbl> <dbl> <dbl> <dbl>
#>  1 s01         0 EY    eyF        OKAY   32.4  754. 2145. 2913.
#>  2 s01         0 EY    eyF        OKAY   32.4  719. 2155. 2913.
#>  3 s01         0 EY    eyF        OKAY   32.4  752. 2115. 2914.
#>  4 s01         0 EY    eyF        OKAY   32.4  762. 2087. 2931.
#>  5 s01         0 EY    eyF        OKAY   32.4  738. 2088. 2933.
#>  6 s01         0 EY    eyF        OKAY   32.4  697. 2123. 2936.
#>  7 s01         0 EY    eyF        OKAY   32.4  640. 2143. 2928.
#>  8 s01         0 EY    eyF        OKAY   32.5  540. 2153. 2936.
#>  9 s01         0 EY    eyF        OKAY   32.5  441. 2164. 2936.
#> 10 s01         0 EY    eyF        OKAY   32.5  497. 2201. 2945.
#> # ℹ 19,490 more rows
…
